<?xml version="1.0" encoding="utf-8"?>
<!-- Generator: Adobe Illustrator 22.1.0, SVG Export Plug-In . SVG Version: 6.00 Build 0)  -->
<svg version="1.1" id="Layer_1" xmlns="http://www.w3.org/2000/svg" xmlns:xlink="http://www.w3.org/1999/xlink" x="0px" y="0px"
	 viewBox="0 0 221.8 218.5" style="enable-background:new 0 0 221.8 218.5;" xml:space="preserve">
<style type="text/css">
	.st0{fill:#FFFFFF;}
	.st1{fill:#5476B9;}
	.st2{fill:#294A63;}
	.st3{fill:#5E5F74;}
</style>
<path class="st0" d="M219.4,122.7c-2.9-3.4-1-10.9-2.1-15.2c-1-4-3.5-7.5-6.5-10.3c2.4-4.9,1.5-11.7-2.9-15c0,0-0.1,0-0.1-0.1
	c1.9-3.3,2.3-7.2,1.2-11c-0.7-2.5-2.7-4.8-4.2-6.9c-2.7-4-3.1-8.2-3.8-12.8c-1-6.3-6.8-9.5-12.4-9.1c0.1-0.2,0.1-0.4,0.1-0.6
	c-0.4-3.2-2.2-6.9-3.6-9.8c-1.2-2.6-2.6-5.4-5-7.1c-2.2-1.5-4.9-2.5-7.6-2.5c0-0.1,0-0.1,0-0.2c-1.1-5.4-5-9.9-9.7-12.6
	c-3.2-1.9-7.8-1.9-12.1-1.3c-8.6-10.8-38.7-12.4-34.9,7c-4.4,4.3-3.7,12.5,0.5,17.2c-0.2,0.2-0.3,0.4-0.2,0.7
	c0.9,4.9,1.1,8.5-1.1,13c-1,2.1-1.8,4.2-1.1,6.4c0.1,0.4,0.4,0.6,0.7,0.8c-2.1,4.5-0.8,9.7,2,13.9c0.1,0.1,0.1,0.2,0.2,0.2
	c-4.1,5.3-3.4,13.6-3.8,20.1c-0.3,6.4,0.7,12.5,4.5,17c1.1,9.9-6.8,17.8-6.1,27.6c0.2,2.7,1.7,4.4,3.7,5.5c-2.6,6-1.3,12.5,1.9,17.6
	c-5.1,7.9-8,24.9,2,29.2c-1.6,1.8-2.3,4.5-2.5,6.8c-0.3,4.6,3.4,9.9,7.7,10.9c0,0.1,0,0.2,0,0.3c1.1,8.1,6.4,15.7,15.3,16.4
	c5,0.4,8.3-1.5,10-4.6c4.9,2,11.2,4.3,16.2,1.6c1.1-0.6,2.2-1.9,2.6-3.2c4.9,2,8.9-0.8,12.4-5c4.8-5.7,13.8-7,16.2-15
	c0.2,0,0.3-0.1,0.5-0.2c3.9-2.3,8.9-5.6,9.3-10.4c0-0.4,0-0.8,0-1.2c4.9-3.3,7.1-8.5,7-14.3c0-6.3-0.7-10.8,2-16.9
	c1.5-3.4,2.6-6.4,2.3-10.2c0-0.5-0.1-0.9-0.2-1.4C222.5,134.4,223.1,127,219.4,122.7"/>
<path class="st1" d="M182.6,175.1c-9.3-2.6-19.3-0.8-28.6,2c-12.9,3.8-25.3,9.3-37.4,15.1c0.3,4.3,3.8,8.8,7.7,9.7
	c0,0.1,0,0.2,0,0.3c1.1,8.1,6.4,15.7,15.3,16.4c5,0.4,8.3-1.5,10-4.6c4.9,2,11.2,4.3,16.2,1.6c1.1-0.6,2.2-1.9,2.6-3.2
	c4.9,2,8.9-0.8,12.4-5c4.8-5.7,13.8-7,16.2-15c0.2,0,0.3-0.1,0.5-0.2c0.6-0.4,1.3-0.8,1.9-1.2C197.4,183.4,190.4,177.3,182.6,175.1"
	/>
<path class="st1" d="M198.2,144.8c-1.5,1.2-3.1,2.4-4.9,2.8c-4.6,1-8.8-2.9-13.3-4.4c-6.8-2.3-14.5,1-21.4-1c-2.5-0.7-4.7-2.1-7.2-3
	c-7.7-3-16.5-1.2-23.7,2.7c-4.6,2.5-8.7,5.8-12.5,9.3c0.5,1.3,1.2,2.6,1.9,3.7c-5.1,7.9-8,24.9,2,29.2c-1.6,1.8-2.3,4.5-2.5,6.8
	c-0.3,3.7,2.1,7.8,5.2,9.8c1.9,0.3,3.9,0.1,5.8-0.5c3.5-1.1,6.3-3.7,9.4-5.5c4.8-2.8,10.7-4,16.2-3.1c2,0.3,4,0.8,6,0.6
	c2.3-0.3,4.4-1.6,6.3-2.8c5.1-3.3,10.5-6.4,16.5-7.3c6-0.9,12.8,1,16.2,6c0.6,0.9,1.1,1.8,1.6,2.7c3.3-2.2,6.6-5.1,7-9
	c0-0.4,0-0.8,0-1.2c4.9-3.3,7.1-8.5,7-14.3c0-6.3-0.7-10.8,2-16.9c1.5-3.4,2.6-6.4,2.3-10.2c0-0.5-0.1-0.9-0.2-1.4
	c2.6-2.1,3.9-5.5,3.8-8.8c-1.6,0.5-3.2,1.1-4.6,1.9C210.2,134.5,204.4,139.9,198.2,144.8"/>
<path class="st1" d="M178.8,93.4c-6.8,1.1-12.9,4.7-18.9,8.1c-12.5,7.1-25.4,13.7-38.7,19.3c-2.9,1.2-6,2.5-8.9,3.9
	c-0.6,2.3-1,4.7-0.9,7.2c0.2,2.7,1.7,4.4,3.7,5.5c-2.6,6-1.3,12.5,1.9,17.6c-0.9,1.4-1.7,3.1-2.5,5c4,0.3,7.9,0.6,11.3,2.5
	c0.9,0.5,1.8,1.1,2.9,1.4c3.1,0.7,5.8-2.1,7.8-4.6c5.1-6.5,11.2-12.8,19.2-14.8c8-2,18.1,2.5,19.2,10.6c0.2,1.7,0.3,3.8,1.7,4.6
	c0.8,0.5,1.7,0.4,2.6,0.4l14.6-0.7c1.7-0.1,3.5-0.2,5-0.9c2.6-1.3,3.8-4.2,4.8-6.9c1-2.7,2-5.6,4.3-7.3s6.4-1.2,7.2,1.6
	c0.3,1.3-0.1,2.7,0,4c0,0.3,0.1,0.5,0.2,0.8c0.1-0.4,0.3-0.7,0.4-1.1c1.5-3.4,2.6-6.4,2.3-10.2c0-0.5-0.1-0.9-0.2-1.4
	c4.4-3.5,5.1-10.8,1.4-15.1c-2.9-3.4-1-10.9-2.1-15.2c-1-4-3.5-7.5-6.5-10.3c1.5-3,1.7-6.8,0.6-10c-6.1,2.1-12.1,4.6-18.4,5.3
	C188.4,93.1,183.5,92.6,178.8,93.4"/>
<path class="st0" d="M207.9,82.1c0,0-0.1,0-0.1-0.1c1.9-3.3,2.3-7.2,1.2-11c-0.7-2.5-2.7-4.8-4.2-6.9c-2.7-4-3.1-8.2-3.8-12.8
	c-0.1-0.4-0.1-0.8-0.2-1.1c-1.9-0.2-3.8-0.3-5.8-0.1c-15.5,0.9-29.4,9.3-42.6,17.4L121,86.9c-1.5,0.9-3.1,1.9-4.8,2.2
	c-1,0.2-2.1,0.1-3.1,0.3c0,5.6,1.2,10.9,4.6,15c1.1,9.9-6.8,17.8-6.1,27.6c0.2,2.5,1.5,4.2,3.3,5.3c2.2,0.2,4.5,0,6.6-0.4
	c5-1.1,10-3.4,15.1-3c7.2,0.5,14.9,5.9,21.1,2.2c5.1-3,6.5-11.1,12.3-12.2c3-0.6,6.6,0.9,9-1c1.8-1.5,1.9-4.2,1.6-6.5
	c-0.4-3-1.2-6-0.9-8.9c0.4-3,2.2-6.1,5.2-6.6c4.5-0.8,7.9,4.3,12.3,5.2c3.2,0.6,6.5-1.1,8.9-3.4c1.9-1.9,3.5-4.2,5.2-6.2
	C213.1,91.2,212,85.2,207.9,82.1"/>
<path class="st0" d="M197.6,63.2c2.3-0.1,4.7,0.2,7,0.4c-2.4-3.8-2.8-7.9-3.5-12.3c-1-6.3-6.8-9.5-12.4-9.1c0.1-0.2,0.1-0.4,0.1-0.6
	c-0.4-3.2-2.2-6.9-3.6-9.8c-0.7-1.6-1.5-3.3-2.6-4.7c-0.4,0.3-0.7,0.6-1.1,1c-1.5,1.3-2.9,2.8-4.7,3.6c-4.5,2.1-9.7,0.4-14.7,0.1
	c-8.2-0.5-16.1,3.3-23,7.9c-6.9,4.6-13.3,10-20.7,13.5c-1.4,0.7-2.8,1.2-4.3,1.7c-1.2,4.1,0.2,8.5,2.6,12.3c0.1,0.1,0.1,0.2,0.2,0.2
	c-4.1,5.3-3.4,13.6-3.8,20.1c-0.1,2-0.1,4,0.1,5.9c8.1,1.7,16.8,2.9,24.1-0.9c4-2.1,7.2-5.6,10.8-8.3c3.6-2.7,8.3-4.8,12.7-3.5
	c2.1,0.6,3.9,2,6,2.4c4.1,0.9,8.2-1.6,11-4.8c2.8-3.1,4.8-6.9,7.8-9.8C188.8,65.3,193.1,63.4,197.6,63.2"/>
<path class="st0" d="M177.2,210.9c0.6-0.4,1.2-0.9,1.7-1.5C178.3,209.9,177.7,210.4,177.2,210.9 M219.4,122.7
	c-2.9-3.4-1-10.9-2.1-15.2c-1-4-3.5-7.5-6.5-10.3c2.4-4.9,1.5-11.7-2.9-15c0,0-0.1,0-0.1-0.1c1.9-3.3,2.3-7.2,1.2-11
	c-0.7-2.5-2.7-4.8-4.2-6.9c-2.7-4-3.1-8.2-3.8-12.8c-1-6.3-6.8-9.5-12.4-9.1c0.1-0.2,0.1-0.4,0.1-0.6c-0.4-3.2-2.2-6.9-3.6-9.8
	c-1.2-2.6-2.6-5.4-5-7.1c-2.2-1.5-4.9-2.5-7.6-2.5c0-0.1,0-0.1,0-0.2c-1.1-5.4-5-9.9-9.7-12.6c-3.2-1.9-7.8-1.9-12.1-1.3
	c-7.1-9-29.1-11.6-34.2-1.1c8.4-4.5,23.8-1.4,29.5,5.8c4.3-0.6,8.8-0.6,12.1,1.3c4.7,2.7,8.6,7.2,9.7,12.6c0,0.1,0,0.2,0,0.2
	c2.7,0.1,5.4,1,7.6,2.5c2.5,1.7,3.9,4.5,5,7.1c1.3,3,3.1,6.6,3.6,9.8c0,0.2,0,0.4-0.1,0.6c5.6-0.4,11.4,2.8,12.4,9.1
	c0.7,4.6,1.1,8.9,3.8,12.8c1.5,2.1,3.4,4.4,4.1,6.9c1.1,3.8,0.6,7.7-1.2,11c0,0,0.1,0,0.1,0.1c4.4,3.3,5.3,10.2,2.9,15
	c3,2.8,5.5,6.3,6.5,10.3c1,4.3-0.8,11.8,2.1,15.2c3.7,4.4,3,11.7-1.4,15.1c0.1,0.4,0.2,0.9,0.2,1.4c0.2,3.7-0.8,6.8-2.3,10.2
	c-2.7,6.1-2,10.6-2,16.9c0,5.8-2.1,11-7,14.3c0.1,0.4,0.1,0.8,0,1.2c-0.1,1.3-0.6,2.4-1.2,3.5c2.9-2.1,5.6-4.8,5.9-8.2
	c0-0.4,0-0.8,0-1.2c4.9-3.3,7.1-8.5,7-14.3c0-6.3-0.7-10.8,2-16.9c1.5-3.4,2.6-6.4,2.3-10.2c0-0.5-0.1-0.9-0.2-1.4
	C222.5,134.4,223.1,127,219.4,122.7 M192.9,196.9c-0.2,0.1-0.3,0.1-0.5,0.2c-0.3,1-0.7,1.9-1.3,2.8c1.9-1.3,3.6-2.9,4.8-4.9
	C194.9,195.6,193.9,196.2,192.9,196.9"/>
<path class="st2" d="M125.8,18.8c-2.4,2.1-2.7,5.6-1.8,8.4c0.2,0.5,0.9,0.3,0.8-0.2c-0.5-2.5,0.7-5.1,2.8-6.6c1.8-1.2,4-0.9,6-1.2
	c0.9-0.1,0.8-1.4,0.2-1.8C131.3,15.5,127.9,17,125.8,18.8 M138.1,11.7c-2.9-2-6.4-2.2-9.7-0.8c-0.7,0.3-0.2,1.4,0.5,1.2
	c3-0.6,5.8,0.1,8,2.3c1.7,1.7,1.6,4,2.6,5.9c0.6,1.1,2.1,0.7,2.5-0.3C143,17.1,140.4,13.3,138.1,11.7 M149.8,22.6
	c4.6-0.5,8.1,2.1,10.1,6c1.9,3.6,0.5,7.2,1.2,10.9c0.2,0.9,1.4,0.9,1.8,0.2c1.7-2.5,1.5-6,0.5-9.2c6.6,2.3,8.5,7.5,8.3,14.5
	c-0.1,4,0,7.6,2.7,10.7c0.9,1.1,2.4-0.3,1.9-1.4c-3-5.8,0-12.5-2.9-18.2c-2.2-4.2-5.8-6.9-10.5-7.3c-0.5-1.2-1.1-2.3-1.8-3.2
	c-2.5-3.5-7.2-5-11.3-4.1C149.1,21.7,149.2,22.6,149.8,22.6 M143.5,37.5c4.9-0.1,11.4-0.3,11.7,6.2c0.2,4.4-1.4,8.7-1,13.2
	c0.1,1.4,2.1,1.8,2.6,0.3c0.4-1.4,0.7-2.8,0.8-4.2c2.2,1.6,4.9,2.3,7.8,1.3c0.9-0.3,0.8-1.7-0.2-1.7c-2.8,0.2-5.1-0.5-7.4-1.7
	c0.1-1,0.2-2.1,0.3-3.1c0.3-3.1,0.5-5.8-0.9-8.5c-2.5-4.8-9.5-4.7-13.9-3.4C142.5,36.2,142.6,37.5,143.5,37.5 M125.7,73
	c-4.3,4.5-11.4,17.2-4.1,22.1c1,0.7,2.2-0.6,1.6-1.6c-4.1-6.7-0.1-13.6,3.6-19.6C127.2,73.1,126.3,72.4,125.7,73"/>
<path class="st2" d="M138.6,73.4c-0.3-1.5-0.9-2.9-1.7-4.2c0.3-2,0.5-4,1.3-5.9c1.2-2.8,3.4-5,5.6-6.9c0.6-0.5,0-1.7-0.8-1.4
	c-4,1.7-7.9,6.9-8.1,11.7c-2.4-2.4-5.8-3.7-9.3-3c-0.8,0.2-0.6,1.4,0.2,1.5c12.5,0.2,11.2,14.8,7.6,22.6c-1.8,3.9-3.2,7.9-2.1,12.2
	c0.4,1.4,2.6,1.1,2.6-0.3C133.9,90.2,140.7,83.1,138.6,73.4 M178.8,158.7c3.8-7.2-2-15.1-8.6-17.9c-8.3-3.5-17.4,0.8-22.6,7.4
	c-0.6,0.7,0.3,1.6,1,1c5.5-4.4,11.5-7.3,18.7-6c7.8,1.4,9.6,8.2,9.3,14.9C176.4,159.3,178.2,159.8,178.8,158.7 M172.5,193.3
	c-6.6-4.7-14.9,1.9-15.4,8.9c-0.1,0.8,1.2,0.9,1.4,0.2c0.8-2.9,2.5-5.1,5.1-6.7c2.6-1.5,5.5-0.9,8.2-0.6
	C172.9,195.3,173.5,194,172.5,193.3 M187.4,169.2c-3.8-1.6-7.4-0.7-11,1.1c-1.7,0.9-3.1,2.5-4.2,4c-4,5.8-8.2,5.5-12.4,1.8
	c3-1.3,5.4-4.7,5.5-7.9c0.2-7.6-8.4-16.5-15.4-9.8c-0.8,0.8,0.3,2.3,1.2,1.6c8-5.7,16.3,9.5,6.6,13.3c-2.8,1.1-6.2-0.6-9.2,0.1
	c-2,0.4-2.6,2.2-3.9,3.5c-0.9,0.9,0,2.4,1.2,2.1c1.6-0.4,2-1.8,3.5-2.4c2.3-1,5.6,0.3,8.4,0.1c2.2,3.1,6.2,6.5,10.2,5.1
	c2.5-0.9,3.9-2.1,5.6-4.2c3.8-4.9,7.3-6.4,13.4-6C188.5,171.6,188.5,169.7,187.4,169.2 M192.9,165.1c-0.7,0.4-0.2,1.4,0.5,1.2
	c6.8-1.4,16.3-12.1,11.6-19.2c-0.6-0.9-1.9-0.5-1.9,0.5c-0.2,3.9,0.4,6.8-1.9,10.3C199.2,160.9,195.9,163.5,192.9,165.1
	 M202.6,117.2c-4.2-1.1-8-2.3-11.7-4.8c-0.9-0.6-1.9,0.7-1.1,1.5c2.6,2.7,5.1,4.2,8.7,5.3c4.3,1.4,4.1,7.5,0.6,9.9
	c-1.6,1.1-3,2.2-4.4,3.6c-2.3,2.5-2.7,6.4-3.3,9.5c-1.1,5.7-4.6,9-8.6,12.7c-0.4,0.3,0,1,0.5,0.9c4.3-1.6,7.2-5.1,9.3-9
	c1.2-2.3,1.7-5,2.4-7.4c1.5-5.4,5.6-6.2,9-9.8c2.8-3,4-5.9,2.4-9.7C205.7,118.6,203.7,117.5,202.6,117.2"/>
<path class="st2" d="M187.8,124.6c0.4,0.3,0.8-0.3,0.5-0.7c-3.2-4.1-6.5-7.7-8.4-12.6c-1.7-4.2-2.3-9.2,3.5-11.2
	c2.5-0.9,5.2,2.9,6.6,4.4c4,4.5,10.6,5.8,15.9,2.7c1-0.6,0.5-2.1-0.6-2.1c-3.1,0-6,0.9-9.2,0.2c-3.2-0.7-5.7-4.8-8.2-6.7
	c-3.3-2.6-7-1.1-9.9,1.4C170.6,106.7,182.4,121.1,187.8,124.6 M176.4,82.4c-4.3,0.6-7.9-0.3-11-3.8c-1.5-1.7-3.2-3.3-5-4.6
	c-3.4-2.4-7.8-2.9-11.6-1.5c-0.8,0.3-0.5,1.3,0.3,1.2c9.2-1.3,12.3,5.3,17.5,11c2.7,2.9,7.8,1.3,10.6-0.3
	C178.5,83.8,177.6,82.2,176.4,82.4 M171.7,61.7c-0.7,0-0.7,1,0,1c2.1,0.2,2.8,3.5,3.2,5.1c0.5,1.8,0.4,3.7,0.9,5.4
	c0.2,0.9,1.6,1,1.8,0c0.5-2.6-0.4-5.3-1.5-7.7C175.3,63.8,174.1,61.6,171.7,61.7 M188.2,66.3c0.4,4.2-3.3,7.2-2.9,11.3
	c0.2,1.5,2.3,2,2.7,0.4c1.6-5.5,3.6-8.9,2.4-14.6c4.7,3,6.6,6.9,7,12.5c0.1,1.3,2,1.7,2.4,0.3c1.6-6.1-3.4-13.3-9.5-14.4
	c-0.1,0-0.2,0-0.3,0c-1.1-3.9-2.7-7.9-6.3-10c-0.5-0.3-1.1,0.4-0.6,0.8C186.6,56,187.7,61.6,188.2,66.3 M148.7,86.1
	c-6.6,5.5-5.3,13.5-1.1,20c2.4,3.8,3.5,7,7.6,9.2c4.4,2.4,10.3,4,15.3,4.4c1.4,0.1,1.4-1.9,0.3-2.3c-6.5-2.6-15.3-2.7-19.2-9.4
	l-0.2-0.4c3.1,1.2,6.5-0.5,8.8-2.5c0.8-0.6,1.4-1.4,1.9-2.2c1.9-0.1,3.6,0.2,5.4,1c0.7,0.3,1.6-0.6,0.9-1.2
	c-1.4-1.3-3.5-1.8-5.4-1.6c1.1-2.5,1.4-5.3,1.1-7.8c-0.1-1.2-2-1.7-2.2-0.3c-0.6,2.9-1.1,5.9-2.5,8.5c-1.9,3.3-4.7,4.1-8.2,4.8
	c-0.2,0-0.4,0.2-0.4,0.4c-3.8-6.6-6.8-12.2-1.1-19.5C150.3,86.4,149.4,85.5,148.7,86.1 M150.9,136.5c1.2-0.4,1-2.1-0.3-2.2
	c-4.4-0.4-7.7-1.3-10.8-4.3c1.6-6-2.2-14.9-4.1-19.3c-0.1-0.2-0.4-0.1-0.4,0.2c0.9,3.6,1.4,7.3,1.8,11c0.4,4.7-1.1,7.6-3.1,11.6
	c-0.6,1.1,0.5,2,1.6,1.6c1.6-0.7,2.7-1.8,3.5-3.1C141.6,135.5,146.7,137.9,150.9,136.5 M181.9,129.2c-0.5-3.5-2.2-6.5-5.1-8.6
	c-0.8-0.6-1.8,0.7-1,1.3c2.3,2,3.5,4.6,3.8,7.6c0.2,2.7-1.3,4.7-1.9,7.2c-0.2,0.8,0.7,1.6,1.5,1.1
	C181.9,136.2,182.4,132.2,181.9,129.2 M198.1,83.1c0.4,2.7,1.1,5.4,1.6,8.2c0.6,3.1-2.9,5.1-4.9,6.9c-0.7,0.6,0,2.1,1,1.7
	c2.9-1.2,5.7-3.2,6.8-6.2c0.4-1.2-0.5-3.1-0.8-4.2c-0.7-2.3-1.4-4.7-2.4-6.9C199,81.7,197.9,82.3,198.1,83.1"/>
<path class="st2" d="M219.4,122.7c-2.9-3.4-1-10.9-2.1-15.2c-1-4-3.5-7.5-6.5-10.3c2.4-4.9,1.5-11.7-2.9-15c0,0-0.1,0-0.1-0.1
	c1.9-3.3,2.3-7.2,1.2-11c-0.7-2.5-2.7-4.8-4.2-6.9c-2.7-4-3.1-8.2-3.8-12.8c-1-6.3-6.8-9.5-12.4-9.1c0.1-0.2,0.1-0.4,0.1-0.6
	c-0.4-3.2-2.2-6.9-3.6-9.8c-1.2-2.6-2.6-5.4-5-7.1c-2.2-1.5-4.9-2.5-7.6-2.5c0-0.1,0-0.1,0-0.2c-1.1-5.4-5-9.9-9.7-12.6
	c-3.3-1.9-7.8-1.9-12.1-1.3c-8.5-10.8-38.7-12.4-34.9,7c-4.4,4.3-3.7,12.5,0.5,17.2c-0.2,0.2-0.3,0.4-0.2,0.7
	c0.9,4.9,1.1,8.5-1.1,13.1c-1,2.1-1.8,4.2-1.1,6.4c0.1,0.4,0.4,0.6,0.7,0.8c-2.1,4.5-0.8,9.7,2,13.9c0.1,0.1,0.1,0.2,0.2,0.2
	c-4.1,5.3-3.4,13.6-3.8,20.1c-0.3,6.4,0.7,12.5,4.5,17c1.1,9.9-6.8,17.8-6.1,27.6c0.2,2.7,1.7,4.4,3.7,5.5c-2.6,6-1.3,12.5,1.9,17.6
	c-5.1,7.9-8,24.9,2,29.2c-1.6,1.8-2.3,4.5-2.5,6.8c-0.3,4.6,3.4,9.9,7.7,10.9c0,0.1,0,0.2,0,0.3c1.1,8.1,6.4,15.7,15.3,16.4
	c5,0.4,8.3-1.5,10-4.6c4.9,2,11.2,4.3,16.2,1.6c1.1-0.6,2.2-1.9,2.6-3.2c4.9,2,8.9-0.8,12.4-5c4.8-5.7,13.8-7,16.2-15
	c0.2,0,0.3-0.1,0.5-0.2c3.9-2.3,8.9-5.6,9.3-10.4c0-0.4,0-0.8,0-1.2c4.9-3.3,7.1-8.5,7-14.3c0-6.3-0.7-10.8,2-16.9
	c1.5-3.4,2.6-6.4,2.3-10.2c0-0.5-0.1-0.9-0.2-1.4C222.5,134.4,223.1,127,219.4,122.7 M216.6,134.8c-4.5-5.4-16.6-1.9-13.7,6.9
	c0.4,1.2,2,0.9,2.1-0.3c-0.3-3.6,1.8-5.7,6.3-6.3c6.7,1.1,3,9.9,1.7,12.7c-1.2,2.8-2.5,5.6-2.7,8.8c-0.2,2.8,0.1,5.5,0.5,8.2
	c0.9,5.9-0.5,10.1-4.4,14.3c-1.6-3-6.3-4.3-9.3-4.5c-0.7,0-0.8,1-0.2,1.2c1.9,0.8,3.9,1.4,5.5,2.7c2.8,2.4,0.8,5.3-1.4,6.9
	c-1.1,0.8-2.4,1.6-3.4,2.5c-0.2-3.7-2.2-7.1-6.5-7.5c-3.2-0.3-5.4,0.6-7.7,2.8c-2.8,2.6-1.8,10-5.1,11.5c-1.1,0.5-0.5,2.2,0.6,2.1
	c2.2-0.1,4.3-1,4.7-3.6c0.4-2.4,0.3-4.8,1.4-7.1c3.9-4.6,7.3-3.9,10.1,2.2c-0.2,2.1-0.9,3.9-2.1,5.6c-2.8,4.6-8.1,5.8-11.9,9.1
	c-4.6,4-5.6,8.2-12.4,7.3c-0.4-1.4-1.1-2.6-1.3-4c-0.3-2,0.6-3.8,1.4-5.6c0.4-0.9-0.5-2.1-1.5-1.5c-3.1,2.1-3.7,5.9-2.7,9.4
	c0.3,1.2,1.6,2.4,0.4,3.8c-1.3,1.6-3.8,1.6-5.6,1.5c-3-0.1-6-1.1-9-1.4c0.8-2.3,0.9-5.1,0.3-8.2c-0.3-1.3-2.2-0.9-2.2,0.3
	c-0.1,2.1-0.3,4.1-0.8,6.2c-1.1,4.6-6.4,4.7-10,3.9c-6.6-1.4-9.5-7-11-12.9c1.4-0.2,2.9-0.9,4.2-2.3c0.9-1-0.3-2.6-1.5-1.9
	c-6.2,3.7-10.4-3-9.5-8.7c1.1-7.2,12-4.7,16.7-3.8c0.8,0.2,1.1-0.9,0.3-1.2c-4.3-1.5-9.4-2.9-14.1-2.1c-0.7,0.1-1.4,0.4-2,0.7
	c0-0.1-0.1-0.3-0.2-0.4c-3.6-4.7-5.1-7.8-5.1-13.9c0-4.2,1.3-8.1,2.9-12c4.1,5.4,10.5,8.7,16.2,6.8c0.7,1.4,2.2,2.6,3.3,3.4
	c2,1.6,4.5,2.3,7.1,2c1.1-0.1,1.6-1.8,0.3-2.1c-1.9-0.4-3.8-1-5.5-2c-1.1-0.6-1.8-1.6-2.6-2.5c2.1-1.3,4-3.5,5.5-6.6
	c0.5-1.1-0.9-2.3-1.8-1.4c-1.9,2.1-3.7,4.1-6.1,5.7c-4.3,2.9-9,0-12.4-2.8c-1.1-0.9-2.1-2-3-3.2c0.1-0.4-0.2-0.7-0.5-0.8
	c-2.7-4.4-3-9.9-1.6-15.1c2.5,0.7,5.4,0.5,7.6,0c1.2-0.3,0.9-2.1-0.3-2.1c-3.9,0-9.7-0.1-10.1-5.8c-0.3-3.7,1.8-8,3-11.4
	c1.5-4.2,2.4-8.3,2-12.6c1.2,1.1,2.7,2.1,4.4,2.9c1.2,0.6,2.7-1,1.6-2c-5.8-5.3-9.5-9.1-9.6-17.5c-0.1-8-1.9-19.1,5.9-24.2
	c0.9-0.6,0.1-1.9-0.8-1.4c-0.9,0.5-1.7,1-2.4,1.6c-1.8-5.6-4-11.2,2.6-14.9c4.8-2.7,9.9-4.9,14.5-8.2c0.3-0.2,0.4-0.5,0.2-0.8
	s-0.5-0.4-0.8-0.2c-3.9,1.8-7.7,3.9-11.6,5.7c-1.9,0.9-4.5,1.5-6.3,2.9c0.7-2.5,1.6-4.9,2.2-7.5c0.7-2.9-0.1-6.1-1-8.9c0,0,0,0,0,0
	c3.7,2.6,7.4,2.3,11.7,1.6c5.3-0.9,8.8-8.1,13.2-10.7c0.8-0.5,0.1-1.6-0.7-1.2c-5.1,2.7-8.7,9.3-14.7,9.8
	c-10.8,1-15.7-10.9-7.9-18.2c1-0.9-0.3-2.2-1.3-1.7c-0.4,0.2-0.9,0.4-1.2,0.7c0.3-16.8,21.5-12.7,31.2-5.7c-1.6,0.3-3.2,0.6-4.5,0.9
	c-0.6,0.1-0.4,1,0.1,1c4.6,0.2,9.1,0.3,13.6,0.6c6,0.4,10.5,6.2,12.1,11.5c-1.3,0.3-2.5,0.9-3.5,1.7c-0.4,0.3-0.2,1,0.4,0.9
	c4.8-1.1,9.2-0.9,13,2.5c4.1,3.7,4.4,10.6,7.7,14.8c0,0,0.1,0.1,0.1,0.1c-2.6,0.5-5,1.8-6.7,3.9c-0.4,0.5,0.1,1.4,0.8,1
	c4.2-2.8,8.4-3.6,12.9-1.1c5.1,2.8,4.2,9.4,5.5,14.2c0.9,3.2,3,5.9,4.8,8.5c3.9,5.7,1.2,9.6-0.6,15.1c-0.3,1,1,1.8,1.8,1
	c0.5-0.5,0.9-1.1,1.3-1.6c1.7,2.9,2.8,5.5,2.3,9c-0.6,3.6-3.3,5.6-5.8,7.9c-0.9,0.9,0,2.4,1.2,2.1c2.2-0.6,3.9-1.9,5.2-3.5
	c2.4,2.8,3.9,5.7,4.9,9.4c1,3.7-0.6,6.9-0.4,10.5c0.1,2.1,0.1,3.1,1.5,4.9C219.2,127.5,218.8,131,216.6,134.8"/>
<path class="st0" d="M2.4,122.7c2.9-3.4,1-10.9,2.1-15.2c1-4,3.5-7.5,6.5-10.3c-2.4-4.9-1.5-11.7,2.9-15c0,0,0.1,0,0.1-0.1
	c-1.9-3.3-2.3-7.2-1.2-11c0.7-2.5,2.7-4.8,4.2-6.9c2.7-4,3.1-8.2,3.8-12.8c1-6.3,6.8-9.5,12.4-9.1C33,42,33,41.7,33,41.5
	c0.4-3.2,2.2-6.9,3.6-9.8c1.2-2.6,2.6-5.4,5-7.1c2.2-1.5,4.9-2.5,7.6-2.5c0-0.1,0-0.1,0-0.2c1.1-5.4,5-9.9,9.7-12.6
	c3.2-1.9,7.8-1.9,12.1-1.3c8.5-10.8,38.7-12.4,34.9,7c4.4,4.3,3.7,12.5-0.5,17.2c0.2,0.2,0.3,0.4,0.2,0.7c-0.9,4.9-1.1,8.5,1.1,13
	c1,2.1,1.8,4.2,1.1,6.4c-0.1,0.4-0.4,0.6-0.7,0.8c2.1,4.5,0.8,9.7-2,13.9c-0.1,0.1-0.1,0.2-0.2,0.2c4.1,5.3,3.4,13.6,3.8,20.1
	c0.3,6.4-0.7,12.5-4.5,17c-1.1,9.9,6.8,17.8,6.1,27.6c-0.2,2.7-1.7,4.4-3.7,5.5c2.6,6,1.3,12.5-1.9,17.6c5.1,7.9,8,24.9-2,29.2
	c1.6,1.8,2.3,4.5,2.5,6.8c0.3,4.6-3.4,9.9-7.7,10.9c0,0.1,0,0.2,0,0.3c-1.1,8.1-6.4,15.7-15.3,16.4c-5,0.4-8.3-1.5-10-4.6
	c-4.9,2-11.2,4.3-16.2,1.6c-1.1-0.6-2.2-1.9-2.6-3.2c-4.9,2-8.9-0.8-12.4-5c-4.8-5.7-13.8-7-16.2-15c-0.2,0-0.4-0.1-0.5-0.2
	c-3.9-2.3-8.9-5.6-9.3-10.4c0-0.4,0-0.8,0-1.2c-4.9-3.3-7.1-8.5-7-14.3c0-6.3,0.7-10.8-2-16.9c-1.5-3.4-2.6-6.4-2.3-10.2
	c0-0.5,0.1-1,0.2-1.4C-0.6,134.4-1.3,127,2.4,122.7"/>
<path class="st0" d="M39.2,175.1c9.3-2.6,19.3-0.8,28.6,2c12.9,3.8,25.3,9.3,37.4,15.1c-0.3,4.3-3.8,8.8-7.7,9.7c0,0.1,0,0.2,0,0.3
	c-1.1,8.1-6.4,15.7-15.3,16.4c-5,0.4-8.3-1.5-10-4.6c-4.9,2-11.2,4.3-16.2,1.6c-1.1-0.6-2.2-1.9-2.6-3.2c-4.9,2-8.9-0.8-12.4-5
	c-4.8-5.7-13.8-7-16.2-15c-0.2,0-0.4-0.1-0.5-0.2c-0.6-0.4-1.3-0.8-1.9-1.2C24.4,183.4,31.4,177.3,39.2,175.1"/>
<path class="st0" d="M23.6,144.8c1.5,1.2,3.1,2.4,4.9,2.8c4.6,1,8.8-2.9,13.3-4.4c6.8-2.3,14.5,1,21.4-1c2.5-0.7,4.7-2.1,7.2-3
	c7.7-3,16.5-1.2,23.7,2.7c4.6,2.5,8.7,5.8,12.5,9.3c-0.5,1.3-1.2,2.6-1.9,3.7c5.1,7.9,8,24.9-2,29.2c1.6,1.8,2.3,4.5,2.5,6.8
	c0.3,3.7-2.1,7.8-5.2,9.8c-1.9,0.3-3.9,0.1-5.8-0.5c-3.5-1.1-6.3-3.7-9.4-5.5c-4.8-2.8-10.7-4-16.2-3.1c-2,0.3-4,0.8-6,0.6
	c-2.3-0.3-4.4-1.6-6.3-2.8c-5.1-3.3-10.5-6.4-16.5-7.3c-6-0.9-12.8,1-16.2,6c-0.6,0.9-1.1,1.8-1.6,2.7c-3.3-2.2-6.6-5.1-7-9
	c0-0.4,0-0.8,0-1.2c-4.9-3.3-7.1-8.5-7-14.3c0-6.3,0.7-10.8-2-16.9c-1.5-3.4-2.6-6.4-2.3-10.2c0-0.5,0.1-1,0.2-1.4
	c-2.6-2.1-3.9-5.5-3.8-8.8c1.6,0.5,3.2,1.1,4.6,1.9C11.6,134.5,17.5,139.9,23.6,144.8"/>
<path class="st0" d="M43,93.4c6.8,1.1,12.9,4.7,18.9,8.1c12.5,7.1,25.4,13.7,38.7,19.3c2.9,1.2,6,2.5,8.9,3.9c0.6,2.3,1,4.7,0.9,7.2
	c-0.2,2.7-1.7,4.4-3.7,5.5c2.6,6,1.3,12.5-1.9,17.6c0.9,1.4,1.7,3.1,2.5,5c-4,0.3-7.9,0.6-11.3,2.5c-0.9,0.5-1.8,1.1-2.9,1.4
	c-3.1,0.7-5.8-2.1-7.8-4.6c-5.1-6.5-11.2-12.8-19.2-14.8s-18.1,2.5-19.2,10.6c-0.2,1.7-0.3,3.8-1.7,4.6c-0.8,0.5-1.7,0.4-2.6,0.4
	l-14.6-0.7c-1.7-0.1-3.5-0.2-5-0.9c-2.6-1.3-3.8-4.2-4.8-6.9c-1-2.7-2-5.6-4.3-7.3s-6.4-1.2-7.2,1.6c-0.3,1.3,0.1,2.7,0,4
	c0,0.3-0.1,0.5-0.2,0.8c-0.1-0.4-0.3-0.7-0.4-1.1c-1.5-3.4-2.6-6.4-2.3-10.2c0-0.5,0.1-1,0.2-1.4c-4.4-3.5-5.1-10.8-1.4-15.1
	c2.9-3.4,1-10.9,2.1-15.2c1-4,3.5-7.5,6.5-10.3c-1.5-3-1.7-6.8-0.6-10c6.1,2.1,12.1,4.6,18.4,5.3C33.5,93.1,38.3,92.6,43,93.4"/>
<path class="st0" d="M13.9,82.1c0,0,0.1,0,0.1-0.1c-1.9-3.3-2.3-7.2-1.2-11c0.7-2.5,2.7-4.8,4.2-6.9c2.7-4,3.1-8.2,3.8-12.8
	c0.1-0.4,0.1-0.8,0.2-1.1c1.9-0.2,3.8-0.3,5.8-0.1c15.5,0.9,29.4,9.3,42.6,17.4l31.5,19.4c1.5,0.9,3.1,1.9,4.8,2.2
	c1,0.2,2.1,0.1,3.1,0.3c0,5.6-1.2,10.9-4.6,15c-1.1,9.9,6.8,17.8,6.1,27.6c-0.2,2.5-1.5,4.2-3.3,5.3c-2.2,0.2-4.5,0-6.6-0.4
	c-5-1.1-10-3.4-15.1-3c-7.2,0.5-14.9,5.9-21.1,2.2c-5.1-3-6.5-11.1-12.3-12.2c-3-0.6-6.6,0.9-9-1c-1.8-1.5-1.9-4.2-1.6-6.5
	c0.4-3,1.2-6,0.9-8.9c-0.3-3-2.2-6.1-5.2-6.6c-4.5-0.8-7.9,4.3-12.3,5.2c-3.2,0.6-6.5-1.1-8.9-3.4c-1.9-1.9-3.5-4.2-5.2-6.2
	C8.7,91.2,9.8,85.2,13.9,82.1"/>
<path class="st0" d="M24.2,63.2c-2.3-0.1-4.7,0.2-7,0.4c2.4-3.8,2.8-7.9,3.5-12.3c1-6.3,6.8-9.5,12.4-9.1C33,42,33,41.7,33,41.5
	c0.4-3.2,2.2-6.9,3.6-9.8c0.7-1.6,1.5-3.3,2.6-4.7c0.4,0.3,0.7,0.6,1.1,1c1.5,1.3,2.9,2.8,4.7,3.6c4.5,2.1,9.7,0.4,14.7,0.1
	c8.2-0.5,16.1,3.3,23,7.9c6.9,4.6,13.3,10,20.7,13.5c1.4,0.7,2.8,1.2,4.3,1.7c1.2,4.1-0.2,8.5-2.6,12.3c-0.1,0.1-0.1,0.2-0.2,0.2
	c4.1,5.3,3.4,13.6,3.8,20.1c0.1,2,0.1,4-0.1,5.9c-8.1,1.7-16.8,2.9-24.1-0.9c-4-2.1-7.2-5.6-10.8-8.3c-3.6-2.7-8.3-4.8-12.7-3.5
	c-2.1,0.6-3.9,2-6,2.4c-4.1,0.9-8.2-1.6-11-4.8c-2.8-3.1-4.8-6.9-7.8-9.8C33,65.2,28.8,63.4,24.2,63.2"/>
<path class="st0" d="M44.6,210.9c-0.6-0.4-1.2-0.9-1.7-1.5C43.5,209.9,44.1,210.4,44.6,210.9 M2.4,122.7c2.9-3.4,1-10.9,2.1-15.2
	c1-4,3.5-7.5,6.5-10.3c-2.4-4.9-1.5-11.7,2.9-15c0,0,0.1,0,0.1-0.1c-1.9-3.3-2.3-7.2-1.2-11c0.7-2.5,2.7-4.8,4.2-6.9
	c2.7-4,3.1-8.2,3.8-12.8c1-6.3,6.8-9.5,12.4-9.1C33,42,33,41.7,33,41.5c0.4-3.2,2.2-6.9,3.6-9.8c1.2-2.6,2.6-5.4,5-7.1
	c2.2-1.5,4.9-2.5,7.6-2.5c0-0.1,0-0.1,0-0.2c1.1-5.4,5-9.9,9.7-12.6c3.2-1.9,7.8-1.9,12.1-1.3c7.1-9,29.1-11.6,34.2-1.1
	c-8.4-4.5-23.8-1.4-29.5,5.8c-4.3-0.6-8.8-0.6-12.1,1.3c-4.7,2.7-8.6,7.2-9.7,12.6c0,0.1,0,0.2,0,0.2c-2.7,0.1-5.4,1-7.6,2.5
	c-2.5,1.7-3.9,4.5-5,7.1c-1.3,3-3.1,6.6-3.6,9.8c0,0.2,0,0.5,0.1,0.6c-5.6-0.4-11.4,2.8-12.4,9.1c-0.7,4.6-1.1,8.9-3.8,12.8
	c-1.5,2.1-3.4,4.4-4.1,6.9c-1.1,3.8-0.6,7.7,1.2,11c0,0-0.1,0-0.1,0.1c-4.4,3.3-5.3,10.2-2.9,15c-3,2.8-5.5,6.3-6.5,10.3
	c-1,4.3,0.8,11.8-2.1,15.2c-3.7,4.4-3,11.7,1.4,15.1c-0.1,0.5-0.2,0.9-0.2,1.4c-0.2,3.7,0.8,6.8,2.3,10.2c2.7,6.1,2,10.6,2,16.9
	c0,5.8,2.1,11,7,14.3c-0.1,0.4-0.1,0.8,0,1.2c0.1,1.3,0.6,2.4,1.2,3.5c-2.9-2.1-5.6-4.8-5.9-8.2c0-0.4,0-0.8,0-1.2
	c-4.9-3.3-7.1-8.5-7-14.3c0-6.3,0.7-10.8-2-16.9c-1.5-3.4-2.6-6.4-2.3-10.2c0-0.5,0.1-1,0.2-1.4C-0.6,134.4-1.3,127,2.4,122.7
	 M29,196.9c0.2,0.1,0.3,0.1,0.5,0.2c0.3,1,0.7,1.9,1.3,2.8c-1.9-1.3-3.6-2.9-4.8-4.9C26.9,195.6,27.9,196.2,29,196.9"/>
<path class="st2" d="M96.1,18.8c2.4,2.1,2.7,5.6,1.8,8.4c-0.2,0.5-0.9,0.3-0.8-0.2c0.5-2.5-0.7-5.1-2.8-6.6c-1.8-1.2-4-0.9-6-1.2
	c-0.9-0.1-0.8-1.4-0.2-1.8C90.5,15.5,94,17,96.1,18.8 M83.8,11.7c2.9-2,6.4-2.2,9.7-0.8c0.7,0.3,0.2,1.4-0.5,1.2
	c-3-0.6-5.8,0.1-8,2.3c-1.7,1.7-1.6,4-2.6,5.9c-0.6,1.1-2.1,0.7-2.5-0.3C78.9,17.1,81.4,13.3,83.8,11.7 M72.1,22.6
	c-4.6-0.5-8.1,2.1-10.1,6c-1.9,3.6-0.5,7.2-1.2,10.9c-0.2,0.9-1.4,0.9-1.8,0.2c-1.7-2.5-1.5-6-0.5-9.2C51.9,32.8,50,38,50.3,45
	c0.1,4,0,7.6-2.7,10.7c-0.9,1.1-2.4-0.3-1.9-1.4c3-5.8,0-12.5,2.9-18.2c2.2-4.2,5.8-6.9,10.5-7.3c0.5-1.2,1.1-2.3,1.8-3.2
	c2.5-3.5,7.2-5,11.3-4.1C72.7,21.7,72.6,22.6,72.1,22.6 M78.3,37.5c-4.9-0.1-11.4-0.3-11.7,6.2c-0.2,4.4,1.4,8.7,1,13.2
	c-0.1,1.4-2.1,1.8-2.6,0.3c-0.4-1.4-0.7-2.8-0.8-4.2c-2.2,1.6-4.9,2.3-7.8,1.3c-0.9-0.3-0.8-1.7,0.2-1.7c2.8,0.2,5.1-0.5,7.4-1.7
	c-0.1-1-0.2-2.1-0.3-3.1c-0.3-3.1-0.5-5.8,0.9-8.5c2.5-4.8,9.5-4.7,13.9-3.4C79.4,36.2,79.2,37.5,78.3,37.5 M96.1,73
	c4.3,4.5,11.4,17.2,4.1,22.1c-1,0.7-2.2-0.6-1.6-1.6c4.1-6.7,0.1-13.6-3.6-19.6C94.6,73.1,95.6,72.4,96.1,73"/>
<path class="st2" d="M83.2,73.4c0.3-1.5,0.9-2.9,1.7-4.2c-0.3-2-0.5-4-1.3-5.9c-1.2-2.8-3.4-5-5.6-6.9c-0.6-0.5,0-1.7,0.8-1.4
	c4,1.7,7.9,6.9,8.1,11.7c2.4-2.4,5.8-3.7,9.3-3c0.8,0.2,0.6,1.4-0.2,1.5C83.5,65.4,84.9,80,88.4,87.8c1.8,3.9,3.3,7.9,2.1,12.2
	c-0.4,1.4-2.6,1.1-2.6-0.3C87.9,90.2,81.1,83.1,83.2,73.4 M43.1,158.7c-3.8-7.2,2-15.1,8.6-17.9c8.3-3.5,17.4,0.8,22.6,7.4
	c0.6,0.7-0.3,1.6-1,1c-5.5-4.4-11.5-7.3-18.7-6c-7.8,1.4-9.6,8.2-9.3,14.9C45.4,159.3,43.6,159.8,43.1,158.7 M49.3,193.3
	c6.6-4.7,14.9,1.9,15.4,8.9c0.1,0.8-1.2,0.9-1.4,0.2c-0.8-2.9-2.5-5.1-5.1-6.7c-2.6-1.5-5.5-0.9-8.2-0.6
	C48.9,195.3,48.3,194,49.3,193.3"/>
<path class="st3" d="M34.5,169.2c3.8-1.6,7.4-0.7,11,1.1c1.7,0.9,3.1,2.5,4.2,4c4,5.8,8.2,5.5,12.4,1.8c-3-1.3-5.4-4.7-5.5-7.9
	c-0.2-7.6,8.4-16.5,15.4-9.8c0.8,0.8-0.3,2.3-1.2,1.6c-8-5.7-16.3,9.5-6.7,13.3c2.8,1.1,6.2-0.6,9.2,0.1c2,0.4,2.6,2.2,3.9,3.5
	c0.9,0.9,0,2.4-1.2,2.1c-1.6-0.4-2-1.8-3.5-2.4c-2.3-1-5.6,0.3-8.4,0.1c-2.2,3.1-6.2,6.5-10.2,5.1c-2.5-0.9-3.9-2.1-5.6-4.2
	c-3.8-4.9-7.3-6.4-13.4-6C33.3,171.6,33.3,169.7,34.5,169.2"/>
<path class="st2" d="M32.9,147.1c0.7,0.4,0.2,1.4-0.5,1.2c-6.8-1.4-16.3-12.1-11.6-19.2c0.6-0.9,1.9-0.5,1.9,0.5
	c0.2,3.9-0.4,6.8,1.9,10.3C26.6,142.9,29.9,145.5,32.9,147.1 M23.3,99.2c4.2-1.1,8-2.3,11.7-4.8c0.9-0.6,1.8,0.7,1.1,1.5
	c-2.6,2.7-5.1,4.2-8.7,5.3c-4.3,1.4-4.1,7.5-0.6,9.9c1.6,1.1,3,2.2,4.4,3.6c2.3,2.5,2.7,6.4,3.3,9.5c1.1,5.7,4.6,9,8.6,12.7
	c0.4,0.3,0,1-0.5,0.9c-4.3-1.6-7.2-5.1-9.3-9c-1.2-2.3-1.7-5-2.4-7.4c-1.5-5.4-5.6-6.2-9-9.8c-2.8-3-4-5.9-2.4-9.7
	C20.1,100.6,22.1,99.5,23.3,99.2"/>
<path class="st2" d="M34.1,124.6c-0.4,0.3-0.8-0.3-0.5-0.7c3.3-4.1,6.5-7.7,8.4-12.6c1.7-4.2,2.3-9.2-3.5-11.2
	c-2.5-0.9-5.2,2.9-6.6,4.4c-4,4.5-10.6,5.8-15.9,2.7c-1-0.6-0.5-2.1,0.6-2.1c3.1,0,6,0.9,9.2,0.2c3.2-0.7,5.7-4.8,8.2-6.7
	c3.3-2.6,7-1.1,9.9,1.4C51.3,106.7,39.5,121.1,34.1,124.6 M45.4,82.4c4.3,0.6,7.9-0.3,11-3.8c1.5-1.7,3.2-3.3,5-4.6
	c3.4-2.4,7.8-2.9,11.6-1.5c0.8,0.3,0.5,1.3-0.3,1.2c-9.2-1.3-12.3,5.3-17.5,11c-2.7,2.9-7.8,1.3-10.6-0.3
	C43.4,83.8,44.3,82.2,45.4,82.4 M50.1,61.7c0.7,0,0.7,1,0,1c-2.1,0.2-2.8,3.5-3.2,5.1c-0.5,1.8-0.4,3.7-0.9,5.4
	c-0.2,0.9-1.6,1-1.8,0c-0.5-2.6,0.4-5.3,1.5-7.7C46.6,63.8,47.7,61.6,50.1,61.7 M37.7,48.3c-0.4,4.2,3.3,7.2,2.9,11.3
	c-0.2,1.5-2.3,2-2.7,0.4c-1.6-5.5-3.6-8.9-2.4-14.6c-4.7,3-6.6,6.9-7,12.5c-0.1,1.3-2,1.7-2.4,0.3c-1.6-6.1,3.4-13.3,9.5-14.4
	c0.1,0,0.2,0,0.3,0c1.1-3.9,2.7-7.9,6.3-10c0.5-0.3,1.1,0.4,0.6,0.8C39.2,38,38.1,43.6,37.7,48.3 M73.1,86.1
	c6.6,5.5,5.3,13.5,1.1,20c-2.4,3.8-3.5,7-7.6,9.2c-4.4,2.4-10.3,4-15.3,4.4c-1.4,0.1-1.4-1.9-0.3-2.3c6.5-2.6,15.3-2.7,19.2-9.4
	l0.2-0.4c-3.1,1.2-6.5-0.5-8.8-2.5c-0.8-0.6-1.4-1.4-1.9-2.2c-1.9-0.1-3.6,0.2-5.4,1c-0.7,0.3-1.6-0.6-0.9-1.2
	c1.4-1.3,3.5-1.8,5.4-1.6c-1-2.5-1.4-5.3-1.1-7.8c0.1-1.2,2-1.7,2.2-0.3c0.6,2.9,1.1,5.9,2.5,8.5c1.9,3.3,4.7,4.1,8.2,4.8
	c0.2,0,0.4,0.2,0.4,0.4c3.8-6.6,6.8-12.2,1.1-19.5C71.5,86.4,72.4,85.5,73.1,86.1 M70.9,136.5c-1.2-0.4-1-2.1,0.3-2.2
	c4.4-0.4,7.7-1.3,10.8-4.3c-1.6-6,2.2-14.9,4.1-19.3c0.1-0.2,0.4-0.1,0.4,0.2c-0.9,3.6-1.4,7.3-1.8,11c-0.4,4.7,1.1,7.6,3.1,11.6
	c0.6,1.1-0.5,2-1.6,1.6c-1.6-0.7-2.7-1.8-3.5-3.1C80.2,135.5,75.2,137.9,70.9,136.5 M39.9,129.2c0.5-3.5,2.2-6.5,5.1-8.6
	c0.8-0.6,1.7,0.7,1,1.3c-2.3,2-3.5,4.6-3.8,7.6c-0.2,2.7,1.3,4.7,1.9,7.2c0.2,0.8-0.7,1.6-1.5,1.1C39.9,136.2,39.5,132.2,39.9,129.2
	 M27.8,65.1c-0.4,2.7-1.1,5.4-1.6,8.2c-0.6,3.1,2.9,5.1,4.9,6.9c0.7,0.6,0,2.1-1,1.7c-2.9-1.2-5.7-3.2-6.8-6.2
	c-0.4-1.2,0.5-3.1,0.8-4.2c0.7-2.3,1.4-4.7,2.4-6.9C26.8,63.7,27.9,64.3,27.8,65.1"/>
<path class="st2" d="M3.8,137.8c-0.1,0.5-0.2,0.9-0.2,1.4c-0.2,3.7,0.8,6.8,2.3,10.2c2.7,6.1,2,10.6,2,16.9c0,5.8,2.1,11,7,14.3
	c-0.1,0.4-0.1,0.7,0,1.2c0.4,4.8,5.5,8.1,9.3,10.4c0.2,0.1,0.3,0.1,0.5,0.2c2.4,8,11.4,9.3,16.2,15c3.5,4.2,7.4,7,12.4,5
	c0.4,1.3,1.5,2.6,2.6,3.2c5,2.7,11.3,0.3,16.2-1.6c1.7,3.1,5,5,10,4.6c8.9-0.7,14.1-8.2,15.3-16.4c0-0.1,0-0.2,0-0.3
	c4.3-1,8.1-6.3,7.7-10.9c-0.2-2.4-0.9-5-2.5-6.8c10-4.3,7.1-21.3,2-29.2c3.2-5.1,4.5-11.6,1.9-17.6c2-1,3.5-2.8,3.7-5.5
	c0.7-9.8-7.2-17.7-6.1-27.6c3.8-4.5,4.9-10.6,4.5-17c-0.3-6.5,0.3-14.8-3.8-20.1c0.1-0.1,0.2-0.1,0.2-0.2c2.7-4.3,4.1-9.4,2-13.9
	c0.3-0.1,0.6-0.4,0.7-0.8c0.7-2.3-0.1-4.4-1.1-6.4c-2.2-4.6-2-8.1-1.1-13.1c0.1-0.2,0-0.5-0.2-0.7c4.1-4.6,4.9-12.9,0.5-17.2
	c3.8-19.4-26.4-17.8-34.9-7C66.7,7.3,62.2,7.3,59,9.2c-4.7,2.7-8.6,7.2-9.7,12.6c0,0.1,0,0.2,0,0.2c-2.7,0.1-5.4,1-7.6,2.5
	c-2.5,1.7-3.9,4.5-5,7.1c-1.3,3-3.1,6.6-3.6,9.8c0,0.2,0,0.5,0.1,0.6c-5.6-0.4-11.4,2.8-12.4,9.1c-0.7,4.6-1.1,8.9-3.8,12.8
	c-1.5,2.1-3.4,4.4-4.1,6.9c-1.1,3.8-0.6,7.7,1.2,11c0,0-0.1,0-0.1,0.1c-4.4,3.3-5.3,10.2-2.9,15c-3,2.8-5.5,6.3-6.5,10.3
	c-1,4.3,0.8,11.8-2.1,15.2C-1.3,127-0.6,134.4,3.8,137.8 M5.9,123.6c1.4-1.7,1.4-2.7,1.5-4.9c0.2-3.6-1.3-6.8-0.4-10.5
	c0.9-3.7,2.4-6.6,4.9-9.4c1.2,1.7,3,3,5.2,3.5c1.2,0.3,2.2-1.2,1.2-2.1c-2.5-2.3-5.2-4.3-5.8-7.9c-0.5-3.5,0.6-6.1,2.3-9
	c0.4,0.6,0.9,1.1,1.3,1.6c0.7,0.7,2.1,0,1.8-1c-1.8-5.5-4.5-9.5-0.6-15.1c1.8-2.7,3.9-5.4,4.8-8.5c1.3-4.8,0.4-11.3,5.5-14.2
	c4.6-2.5,8.7-1.7,12.9,1.1c0.6,0.4,1.2-0.5,0.8-1c-1.7-2.1-4.1-3.4-6.7-3.9c0,0,0.1-0.1,0.1-0.1c3.2-4.3,3.6-11.2,7.7-14.8
	c3.8-3.4,8.2-3.6,13-2.5c0.6,0.1,0.8-0.6,0.4-0.9c-1.1-0.8-2.3-1.4-3.5-1.7c1.6-5.3,6.1-11.1,12.1-11.5c4.5-0.3,9.1-0.4,13.6-0.6
	c0.6,0,0.7-0.9,0.1-1c-1.4-0.3-2.9-0.6-4.5-0.9c9.7-7,31-11.2,31.2,5.7c-0.4-0.3-0.8-0.5-1.2-0.7c-1.1-0.5-2.3,0.8-1.3,1.7
	c7.8,7.3,2.9,19.2-7.9,18.2c-6-0.6-9.6-7.2-14.7-9.8c-0.8-0.4-1.5,0.7-0.7,1.2c4.4,2.7,7.9,9.8,13.2,10.7c4.3,0.7,8.1,1.1,11.7-1.6
	l0,0c-0.9,2.8-1.7,6-1,8.9c0.6,2.6,1.5,5,2.2,7.5c-1.8-1.4-4.4-2.1-6.3-2.9c-3.9-1.8-7.7-3.9-11.6-5.7c-0.3-0.2-0.7-0.1-0.8,0.2
	s-0.1,0.7,0.2,0.8c4.5,3.2,9.6,5.4,14.5,8.2c6.6,3.7,4.3,9.3,2.6,14.9c-0.7-0.6-1.5-1.2-2.4-1.7c-0.9-0.5-1.7,0.8-0.8,1.4
	c7.7,5,6,16.2,5.9,24.2c-0.1,8.4-3.8,12.2-9.6,17.5c-1.1,1,0.3,2.6,1.6,2c1.7-0.8,3.2-1.8,4.4-2.9c-0.4,4.3,0.4,8.3,2,12.6
	c1.2,3.4,3.3,7.7,3,11.4c-0.5,5.7-6.2,5.7-10.1,5.8c-1.2,0-1.5,1.8-0.3,2.1c2.2,0.6,5.1,0.7,7.6,0c1.4,5.2,1.1,10.6-1.6,15.1
	c-0.4,0.1-0.7,0.4-0.5,0.8c-0.8,1.2-1.8,2.3-3,3.2c-3.3,2.8-8.1,5.7-12.4,2.8c-2.4-1.6-4.1-3.6-6.1-5.7c-0.9-1-2.3,0.3-1.8,1.4
	c1.6,3.1,3.5,5.3,5.5,6.6c-0.8,0.9-1.6,1.9-2.6,2.5c-1.7,1-3.6,1.6-5.5,2c-1.3,0.3-0.8,2,0.3,2.1c2.6,0.3,5.1-0.4,7.1-2
	c1.1-0.8,2.6-2,3.3-3.4c5.7,1.8,12-1.4,16.2-6.8c1.6,3.8,2.9,7.7,2.9,12c0,6.1-1.5,9.2-5.1,13.9c-0.1,0.1-0.1,0.2-0.2,0.4
	c-0.6-0.4-1.3-0.6-2-0.7c-4.6-0.8-9.7,0.6-14.1,2.1c-0.7,0.3-0.4,1.3,0.3,1.2c4.7-0.9,15.6-3.4,16.7,3.8c0.9,5.7-3.2,12.4-9.5,8.7
	c-1.2-0.7-2.4,0.9-1.5,1.9c1.3,1.4,2.8,2.1,4.2,2.3c-1.5,5.9-4.5,11.5-11,12.9c-3.7,0.8-8.9,0.7-10-3.9c-0.5-2.1-0.7-4.1-0.8-6.2
	c-0.1-1.2-2-1.6-2.2-0.3c-0.6,3.1-0.5,5.9,0.3,8.2c-3,0.3-6,1.3-9,1.4c-1.8,0.1-4.3,0.1-5.6-1.5c-1.2-1.4,0.1-2.6,0.4-3.8
	c1-3.4,0.4-7.3-2.7-9.4c-1-0.7-1.8,0.6-1.5,1.5c0.8,1.8,1.6,3.6,1.4,5.6c-0.2,1.4-0.9,2.7-1.3,4c-6.8,0.9-7.7-3.3-12.4-7.3
	c-3.8-3.3-9.1-4.5-11.9-9.1c-1.2-1.6-1.9-3.5-2.1-5.6c2.8-6.1,6.1-6.8,10.1-2.2c1.1,2.2,1,4.7,1.4,7.1c0.4,2.6,2.5,3.5,4.7,3.6
	c1.1,0,1.6-1.7,0.6-2.1c-3.3-1.5-2.4-8.9-5.1-11.5c-2.3-2.2-4.5-3.1-7.7-2.8c-4.3,0.4-6.3,3.8-6.5,7.5c-1-0.9-2.3-1.7-3.4-2.5
	c-2.2-1.7-4.2-4.6-1.4-6.9c1.6-1.4,3.6-1.9,5.5-2.7c0.6-0.2,0.6-1.2-0.2-1.2c-3,0.1-7.7,1.4-9.3,4.5c-3.9-4.2-5.3-8.4-4.4-14.3
	c0.4-2.8,0.7-5.4,0.5-8.2c-0.2-3.1-1.5-5.9-2.7-8.8c-1.2-2.8-4.9-11.6,1.7-12.7c4.6,0.6,6.7,2.7,6.3,6.3c0.1,1.2,1.7,1.5,2.1,0.3
	c2.9-8.8-9.1-12.3-13.7-6.9C3.1,131,2.6,127.5,5.9,123.6"/>
</svg>
