<svg xmlns="http://www.w3.org/2000/svg" width="61.686" height="47.096">
  <path fill="#FAFBFC" d="M54.821 26.983a16.53 16.53 0 0 0 2.568-8.854c0-9.184-7.445-16.63-16.631-16.63-9.184 0-16.629 7.446-16.629 16.63 0 9.186 7.446 16.631 16.629 16.631a16.54 16.54 0 0 0 7.43-1.767c3.262 2.555 7.99 2.336 10.994-.668a8.93 8.93 0 0 0 .465-.515l-4.826-4.827z"/>
  <path fill="none" stroke="#F4DE11" stroke-width="3" stroke-miterlimit="10" d="M54.821 26.983a16.53 16.53 0 0 0 2.568-8.854c0-9.184-7.445-16.63-16.631-16.63-9.184 0-16.629 7.446-16.629 16.63 0 9.186 7.446 16.631 16.629 16.631a16.54 16.54 0 0 0 7.43-1.767c3.262 2.555 7.99 2.336 10.994-.668a8.93 8.93 0 0 0 .465-.515l-4.826-4.827z"/>
  <path fill="#FAFBFC" d="M20.931 12.335c-9.186 0-16.63 7.445-16.63 16.63 0 3.258.95 6.287 2.568 8.853l-4.827 4.828c.149.175.301.349.466.515 3.005 3.004 7.732 3.223 10.995.668a16.533 16.533 0 0 0 7.428 1.768c9.186 0 16.63-7.446 16.63-16.631 0-9.186-7.445-16.631-16.63-16.631"/>
  <path fill="none" stroke="#F4DE11" stroke-width="3" stroke-miterlimit="10" d="M20.931 12.335c-9.186 0-16.63 7.445-16.63 16.63 0 3.258.95 6.287 2.568 8.853l-4.827 4.828c.149.175.301.349.466.515 3.005 3.004 7.732 3.223 10.995.668a16.533 16.533 0 0 0 7.428 1.768c9.186 0 16.63-7.446 16.63-16.631 0-9.186-7.445-16.631-16.63-16.631z"/>
  <path fill="#F4DE11" d="M15.487 29.614a1.934 1.934 0 1 1-3.867-.001 1.934 1.934 0 0 1 3.867.001m7.376 0a1.934 1.934 0 1 1-3.867-.001 1.934 1.934 0 0 1 3.867.001m7.376 0a1.934 1.934 0 1 1-3.867-.001 1.934 1.934 0 0 1 3.867.001m5.705-11.484a1.532 1.532 0 0 1-3.064 0 1.533 1.533 0 0 1 3.064 0m5.844 0a1.531 1.531 0 1 1-3.062 0 1.531 1.531 0 0 1 3.062 0m5.843 0a1.531 1.531 0 1 1-3.062 0 1.531 1.531 0 0 1 3.062 0"/>
</svg>
