<svg xmlns="http://www.w3.org/2000/svg" width="51.452" height="54.553">
  <g fill="none" stroke="#dc3d2c" stroke-width="3" stroke-miterlimit="10">
    <path d="M46.687 41.535H4.766A3.266 3.266 0 0 1 1.5 38.269V4.766A3.266 3.266 0 0 1 4.766 1.5h41.92a3.265 3.265 0 0 1 3.266 3.266V38.27a3.265 3.265 0 0 1-3.265 3.265zM1.5 30.904h48.452"/>
    <circle cx="25.726" cy="36.465" r="1.906"/>
    <path d="M19.92 41.535h11.612v6.328H19.92z"/>
    <path d="M36.8 53.053H14.653a1.967 1.967 0 0 1-1.961-1.962v-1.267c0-1.078.882-1.961 1.961-1.961H36.8c1.078 0 1.961.883 1.961 1.961v1.267a1.968 1.968 0 0 1-1.961 1.962z"/>
  </g>
</svg>
