{
  "Ballena": "Information refinement, ecosystem balance",
  "BallenaTexto": "Whale is concerned with sustaining, developing and accompanying processes or people so that the entire system works. It is associated with social/community sensitivity and the ability to orient oneself and understand how groups work, what one’s role is in these groups, and what needs to be done for participating or not participating, depending on the case. If your score is low on this item, you may lack emotional creativity, which implies appropriate and positive management of complex and profound emotions. You would do well to cultivate more kindness toward yourself and the world and you would also benefit enormously by working on building your capacity to cradle yourself and others.  Jobwise, this is the capacity to accompany, prompt and guide others in processes or in acquiring knowledge about something. It has to do with helping others understand where they are in the world and how best to move or develop themselves. It involves everything related to induction processes typical of this model and how to create the conditions so that something more is produced. ",
  "Oso": "Territory, presence",
  "OsoTexto": "Bear is associated with structuring, organizing and ordering materials and the world for a purpose or an end. It is associated with the ability to set all kinds of limits and specific goals for developing different aspects step by step. It can also simply be a guardian so that specific things are carried out according to an initial proposal.  If you have a low score on this item, it means that you have little ability to organize, structure and/or follow instructions. You might not have a good understanding of the usefulness and use of hierarchies and programs or conditions that may seem monotonous because they require vigilance and permanent continuity. You should make plans with goals and objectives at different levels of importance and structure them step by step. In addition, making these planned things happen would be an ideal exercise for training yourself to understand this type of biological movement or program.  Jobwise, this item represents the ability to direct, control and organize an organization’s resources. It also represents the ability to make decisions and have them carried out. It describes the typical boss who makes sure that targets and goals are met.  ",
  "Búho": "Bird of prey, hunt with night vision.",
  "BúhoTexto": "Owl is associated with using intuition and keen observation of situations in order to know how to act and take measures so that the necessary actions are carried out to achieve the proposed goals. This is the person who knows what is needed and how it is needed, without having someone else tell him. It is the typical situational or intuitive leader who is very useful in phases where processes are fully underway.If your score is low on this item, it means you are probably not very sensitive to the needs of others unless they are continually informing you directly and verbally of those needs. Even when they tell you their needs, you might sometimes tend not to understand what they mean. It would be very good for you to do practice putting yourself in others’ shoes, opening your mind more to the different ways of seeing the world, the different interpretations human beings have as part of our tremendous biological variability.Jobwise, this archetype represents the ability to help others obtain what they need and do what is needed so that things finally happen. People with high scores on this archetype are usually attuned to working with human development, future planning, care and services.",
  "León": "Create life, develop progeny, be at the top of the food chain.",
  "LeónTexto": "Lion is associated with creative activity, motivating, teaching, transmitting, setting an example for others and developing ideas and concepts – aspects that for this archetype represent confidence in oneself and self-validation. If your points are low on this item, this means you would benefit greatly by working on self-confidence and creative expression of your ideas. You may feel insecure about speaking in public or if you are given the responsibility to motivate, lead or conduct groups of people. To improve these aspects, you can work at exploring your self-knowledge, the rules you live by, whether they come from you or from what others say about how things should be done. Look for your individuality and learn to express it; this is one of the fundamental characteristics of being an empathetic leader. Jobwise, this archetype is associated with leaders and area directors who motivate and help develop projects and/or people, keeping up morale and maintaining an emotional connection among group or team members.",
  "Caballo": "Strongly sensitive to body signals for strengthening the bond among group members, thus ensuring survival.",
  "CaballoTexto": "Horse is associated with the attention that is automatically and intuitively paid to verbal and nonverbal signals when communicating with another and with the group as a whole. If your score is low on this item, it means you probably don’t pay much attention to some aspects of communication that are more intuitive, and/or you don’t concern yourself too much about following the rhythm of the group with its rules and mandates for group membership. You are probably not much interested in teamwork, either, or in giving up your individuality to the group. To improve aspects associated with this item, it would help you to understand what empathetic communication is all about and what the more bodily aspects are of the signals through which we human beings connect. Connecting assertively with another and using your body as a tool for expression and communication could be a key survival skill in demanding environments and for improving the availability of all kinds of help from others. You need to understand that working in a group makes it possible to overcome the biggest hurdles and get to where you could never have gotten on your own. This archetype is typical of salespeople and communicators, people who manage groups and networks and people who organize and direct the actions of groups of people who are joined together by particular interests.",
  "Colibrí": "Highly specialized pollinator",
  "ColibríTexto": "Hummingbird is associated with developing a sense of purpose for people and/or things and feeling comfortable doing something. It also relates to enjoyment and the ability to connect with the more playful and emotional aspects of life. If you have a low score on this item, you may have a tendency to make your life difficult or complicate your life with ideas about how things or people should be. You may tend to work for reasons such as obligation or guilt and you may not consider enjoyment and happiness a basic resource for mobilizing yourself through life. It would help you to work on your artistic or expressive side. You could get into some creative activity that has no specific purpose or end and is done for the sheer pleasure of doing it, such as cooking, painting, writing, going to the theater or the movies or conversing for the sake of conversing; you could try it and learn from the experience. This archetype is typical of people who work with the art world and/or beautification of places or situations, the kitchen, products for elites or people interesting in the good life and caring for others. Here, sensitivity and esthetics are valued as a contribution to life itself, to enjoyment and to human development.",
  "Cisne": "Impeccability and cleanliness as an evolutionary strategy for survival without parasites.",
  "CisneTexto": "Swan is associated with the impeccable appearance of things, situations and oneself. It is also associated with the world of luxury, politeness and attention to detail in order to impact and motivate the other person in the relationship. It corresponds to seeing oneself or being the face of something, personifying the best and most exquisite aspect of something, speaking for others and embellishing, as well as with being visible or exposed. If your score is low on this item, you might consider form as being something secondary and irrelevant, or you find it hard to understand and manage information regarding esthetics and/or the presentation of something or someone. You might think that taking care of the more external manners is a waste of time and a meaningless activity. However, you should consider, for example, that customer service, public relations and teachers in any area are associated with the cultivation of perfection and the pursuit of excellence in even the tiniest details. Keep in mind that things that may seem unimportant to you may become the details that mark the difference in concepts of luxury, service and wellbeing. This archetype is typical of people who work showing the best aspect of something, speaking for others and embellishing the way products, ideas or people relate to the public. Customer service and good image are typical of this item.",
  "Halcón": "Capture in flight, precision vision.",
  "HalcónTexto": "Falcon is associated with paying attention and focusing on what is happening around us and with being able to see opportunities and possibilities where others see nothing but challenges. Falcon has to do with the ability to research, develop and create on the basis of information obtained from close observation of the environment and the ways of relating and being of people, places and/or products. Falcons learn by imitating, seeing and discriminating timely information from that which is not. If you have a low score on this item, you probably limit your capacity to assimilate based on what others do and their example. You should consider the idea that the human being’s first social way of learning is through observation and copying of others who are thought of as models. This occurs from early infancy on and is a valid strategy to be used throughout life. Practice observing, understanding and imitating solutions or proposals in emotional, financial, family and social aspects, etc., that other have already implemented; it could be very effective and revealing of your own talents and capacity-building. This archetype is typical of researchers, investors, people working in science and technological developments, visionaries and market spies or people who see and study what others do in order to implement models and actions.",
  "Serpiente": "Renewal, contact.",
  "SerpienteTexto": "Snake is associated with being in contact with your own emotions, body, desires, needs, impulses and senses as a source of information for putting into motion, motivating and achieving what you want. This contact allows for transformation and self-development in terms of the changes needed for growth and evolution. If you are low on this item, you probably listen to your internal voice and pay attention to your most important needs when they are already pressing and you have no opportunity to make different choices. You probably don’t know how to get what you need from life when you need it. It would help you greatly to listen to yourself in silence, ask yourself what you need and how you need it and simply go for it and take it without guilt or judgment. Practice being in contact with life as it presents itself to you in the here and how, and don’t think too hard about or rationalize your needs. Treat yourself without guilt and learn from the experience. This archetype is typical of people who work with health, wellness and beauty, but also of those who work with processes of renewal and profound change. People with high scores on this item tend to break easily with the past and probably have little fear of making mistakes or being wrong.",
  "Jaguar": "Capture moving prey.",
  "JaguarTexto": "Jaguar is associated with being in touch with our body, movement and emotions, and with knowing how to process and assimilate emotions. Feeling and being able to process emotional information about relationships and our own and others’ behavioral patterns gives us the opportunity to understand ourselves and our reactions or actions in different situations. With this understanding we know how and in what direction to activate our energy in order to adapt as best as possible. If you are low on this item, it is probably hard for you to manage the emotional aspects of relationships such as dealing with an annoyance or a fight or knowing what to do to manage your moods, which, generally speaking, are changeable and sometimes unforeseeable for all human beings. You will very likely need more time than other people do to understand and process what you feel. You would benefit greatly from all activities where you work on the relationship between body and emotions, such as dance, yoga, meditation, outdoor exercise, etc. Emotions are the basic energy that motivates and mobilizes us towards somewhere; without emotions we don’t have the necessary impulse for acting.  This is the dimension that has to be integrated. Emotions also tell you how you most vitally and intimately assess a situation, condition and/or person. They give you fundamental information for understanding your environment and the way in which you are immersed in it.  A high score on this archetype is typical of high performing athletes, people who like to work outdoors, people who manage their own emotions and those of others as part of their job, such as coaches, personal trainers and therapists, and people who manage family aspects and group and individual development and improvement through processes for understanding emotional life and its impact on human behavior.  ",
  "Dragón": "Construction of a knowledge system that goes beyond biology.",
  "DragónTexto": "Dragon is associated with being in contact with information and languages and it means organizing them and adjusting them some way in a network. For this reason, it is a typical archetype of systems engineers, as well as writers and people who analyze and understand population behavior in general through what we today call “big data”. Saving and/or organizing information for transmitting it later, for example, by means of education, is also typical of this item. If you are low on this item, you probably do not place much importance on cultural aspects or information refinement as valued in philosophy, religion, science and topics that are generally outside the scope of the daily life of human beings. All this may appear complex and somewhat absurd to you. It could also be that you prefer life's more commonplace or basic conversations or situations, and that when people you are with get into metaphysical depth you don’t feel very much at ease.  You don't feel at ease working with your intuition, either, or trusting everything to it, and you would prefer to base your decisions on more specific things and work on the facts and concrete points. Intuiting and connecting with life in a way that we probably can’t fully explain is also an integral part of the experience of being human. When you open yourself to this type of information, you give yourself permission so that the parts of you that unconsciously process information can emerge to help you understand and better manage your world. Allow yourself to believe in your hunches, your convictions; allow yourself to follow your instincts and work on the basis of them sometimes. People with high scores on this item tend to have creative jobs where they develop innovative concepts and ideas in different areas. They may also have an ability to predict and develop ideas about what will happen in specific contexts or situations, using models or explanatory theories of how the world or things, or something simple like more immediate relationships, work.  ",
  "Cóndor": "Efficient use of energy.",
  "CóndorTexto": "Condor is associated with understanding the overall panorama of a situation or the highest purposes in specific contexts. It is also associated with the ability to be efficient and effective in taking advantage of the situation and, where relevant, taking advantage of adverse conditions.  If you have a low score on this item, you may find it hard to integrate aspects of your life to give you a clear idea of the general panorama of the facts concerning how you live, that is, the concept of cause and effect as applied to yourself. It may also happen that you don't see very well, or don’t know, how to take maximum advantage of your qualities and talents or the qualities and talents of those around you. You may tend to remain trapped in habits that are not good for you, leave things unsolved and have difficulty understanding your own vital mission or your role in a particular situation or in the world, if you are proposing more transcendental things. People with high scores on this item tend to be the ones who better project toward the future, given the current conditions – whether good or bad – and who make headway on their projects by using their resources in an organized and rational way. In companies they tend to be the ones who do the strategic planning and have a clear idea of the mission and vision of projects and developments. They tend to be the kind of people who have a clear knowledge of the reason things are done the way they are done. "
}