[
	[
		"¿Qué es el modo preferente?",
		"<p>Es la manera como tu cerebro prefiere procesar la información, para tomar datos del entorno y orientarse en el mundo.</p><p>Entendemos en TUULS que hay 12 maneras preferentes de orientarse en el mundo  que  se describen como animales que simbolizan arquetipos o formas puras de ser y percibir la información. Por ejemplo, la manera de orientarse de un OSO se basa en el territorio y el poder, y es diferente a la manera de orientarse de un CABALLO, que tiene que ver más con las señales del grupo y la comunicación.</p><p>Los seres humanos podemos conocer esto y entender de qué se trata cada animal intuitivamente, porque poseemos el mismo ADN que todas las criaturas de la Tierra y además, una evolución de nuestros cerebros y cuerpos que ha sido paralela. Cada uno de los seres de la tierra, es una especialización de un programa evolutivo general. Con los resultados de la prueba de Impronta Vital,  veremos en el caso de nosotros como seres humanos, cual es nuestra tendencia natural hacia estas especializaciones que están representadas por 12 animales o arquetipos: BALLENA, OSO, BUHO, LEON, CABALLO, COLIBRI, CISNE, HALCON, SERPIENTE, JAGUAR, DRAGÓN, CONDOR.</p>"
	],
	[
		"¿Porque es importante saberlo?",
		"<p>Porque cuando tú te desenvuelves y desarrollas de la manera que para ti es más natural, por nacimiento, por aprendizaje, por experiencia, por ADN, etc., tu rendimiento será muchísimo mejor. Hay pruebas de que una persona puede gastar 100 veces más de energía en su cerebro,  haciendo algo para lo que no tiene facilidad natural, que haciendo algo que se le facilita espontáneamente.</p>"
	],
	[
		"¿Para que te sirve esta prueba?",
		"<p>Para adaptarte mejor, para saber cuál es tu máximo potencial, para desarrollarte con más éxito, para elegir trabajo o profesión óptimos, para identificar talentos naturales, en general, te sirve para vivir en mayor plenitud y armonía con lo que eres.</p>"
	],
	[
		"¿Cuáles son los usos prácticos de esta información?",
		"<p>Elegir una carrera, enfocarse en desarrollar talentos naturales, encontrar empleo óptimo, ser líder a tu manera, desarrollarse con más éxito, saber el papel que uno desempeña en el grupo y en la comunidad, encontrar un propósito y motivo para vivir desde las habilidades naturales.</p>"
	],
	[
		"¿A quién le sirve?",
		"<p><strong>Público general</strong></p><ul><li>Personas que están en pleno desarrollo, gente muy joven que necesita orientación vocacional.</li><li>Personas que buscan equilibrio, mejorar, conocerse mejor.</li> <li>Personas que están cambiado hacia nuevas vidas.</li> <li>Personas que están enfrentando desafíos.</li> <li>Personas que buscan trabajo y no saben en qué área enfocarse.</li><li>Personas que necesitan una orientación sobre las propias cualidades y aptitudes.</li><li>Personas que no han tenido éxito laboral y quieren entender cómo pueden lograrlo mejor.</li></ul><p><strong>Para empresas</strong></p><ul><li>Selección de personal.</li><li>Análisis de causas de rotación.</li><li>Planeación de programas para mejoramiento del recurso humano.</li><li>Formación de equipos de trabajo.</li><li>Adecuación laboral.</li><li>Satisfacción en el puesto de trabajo.</li><li>Análisis de grupos y tendencias.</li><li>Maximización y efectividad del recurso humano.</li></ul><p><strong>Para grupos de nivel gerencial y líderes</strong></p><ul><li>Maximización de destrezas y aptitudes.</li><li>Conformación de grupos efectivos y estratégicos.</li></ul>"
	]
]